Diversity in cities
…
london.firms <- read_csv(path.data) 

london.firms %>% 
  filter(SICCode.SicText_1!="None Supplied") %>% 
  group_by(oslaua, SICCode.SicText_1) %>% 
  summarise(n = n()) %>% 
  mutate(total = sum(n),
         freq = n / total) %>% 
  group_by(oslaua) %>% 
  summarise(richness = n_distinct(SICCode.SicText_1),
            entropy = entropy(freq, method = "ML"),
            herf = herf(n)) %>% 
  arrange(-herf) 

# A tibble: 33 x 4
   oslaua    richness entropy   herf
   <chr>        <int>   <dbl>  <dbl>
 1 E09000013      602    4.64 0.0301
 2 E09000001      744    4.52 0.0288
 3 E09000033      827    4.61 0.0258
 4 E09000003      723    4.67 0.0233
 5 E09000008      678    4.79 0.0221
 6 E09000027      558    4.71 0.0220
 7 E09000015      633    4.73 0.0205
 8 E09000010      667    4.79 0.0205
 9 E09000007      827    4.83 0.0204
10 E09000020      577    4.77 0.0196
# ... with 23 more rows
…
